{
  "project_info": {
    "project_number": "804206268742",
    "project_id": "doctor-app-6ee66",
    "storage_bucket": "doctor-app-6ee66.appspot.com"
  },
  "client": [
    {
      "client_info": {
        "mobilesdk_app_id": "1:804206268742:android:d12ed1008cd640e1e51547",
        "android_client_info": {
          "package_name": "com.infinitaskt.mdeconnect"
        }
      },
      "oauth_client": [
        {
          "client_id": "804206268742-5g1frl8tq3i12mardu0c3kmi2eq7gjei.apps.googleusercontent.com",
          "client_type": 3
        }
      ],
      "api_key": [
        {
          "current_key": "AIzaSyD7gqhMTwg7b5DG8Y0RtJTTovVE43QEUK8"
        }
      ],
      "services": {
        "appinvite_service": {
          "other_platform_oauth_client": [
            {
              "client_id": "804206268742-5g1frl8tq3i12mardu0c3kmi2eq7gjei.apps.googleusercontent.com",
              "client_type": 3
            },
            {
              "client_id": "804206268742-4271jvudbvlifrbqi2f8tfn0fo9vd3ui.apps.googleusercontent.com",
              "client_type": 2,
              "ios_info": {
                "bundle_id": "com.infinitaskt.mdeconnect"
              }
            }
          ]
        }
      }
    }
  ],
  "configuration_version": "1"
}